%YAML 1.1
%TAG !u! tag:unity3d.com,2011:
--- !u!1001 &6650831586952292137
PrefabInstance:
  m_ObjectHideFlags: 0
  serializedVersion: 2
  m_Modification:
    m_TransformParent: {fileID: 0}
    m_Modifications:
    - target: {fileID: 6150645652532609215, guid: c0e671d76501079469daee31567f79d8, type: 3}
      propertyPath: m_RootOrder
      value: 0
      objectReference: {fileID: 0}
    - target: {fileID: 6150645652532609215, guid: c0e671d76501079469daee31567f79d8, type: 3}
      propertyPath: m_LocalPosition.x
      value: 0
      objectReference: {fileID: 0}
    - target: {fileID: 6150645652532609215, guid: c0e671d76501079469daee31567f79d8, type: 3}
      propertyPath: m_LocalPosition.y
      value: 0
      objectReference: {fileID: 0}
    - target: {fileID: 6150645652532609215, guid: c0e671d76501079469daee31567f79d8, type: 3}
      propertyPath: m_LocalPosition.z
      value: 0
      objectReference: {fileID: 0}
    - target: {fileID: 6150645652532609215, guid: c0e671d76501079469daee31567f79d8, type: 3}
      propertyPath: m_LocalRotation.w
      value: 1
      objectReference: {fileID: 0}
    - target: {fileID: 6150645652532609215, guid: c0e671d76501079469daee31567f79d8, type: 3}
      propertyPath: m_LocalRotation.x
      value: 0
      objectReference: {fileID: 0}
    - target: {fileID: 6150645652532609215, guid: c0e671d76501079469daee31567f79d8, type: 3}
      propertyPath: m_LocalRotation.y
      value: 0
      objectReference: {fileID: 0}
    - target: {fileID: 6150645652532609215, guid: c0e671d76501079469daee31567f79d8, type: 3}
      propertyPath: m_LocalRotation.z
      value: 0
      objectReference: {fileID: 0}
    - target: {fileID: 6150645652532609215, guid: c0e671d76501079469daee31567f79d8, type: 3}
      propertyPath: m_LocalEulerAnglesHint.x
      value: 0
      objectReference: {fileID: 0}
    - target: {fileID: 6150645652532609215, guid: c0e671d76501079469daee31567f79d8, type: 3}
      propertyPath: m_LocalEulerAnglesHint.y
      value: 0
      objectReference: {fileID: 0}
    - target: {fileID: 6150645652532609215, guid: c0e671d76501079469daee31567f79d8, type: 3}
      propertyPath: m_LocalEulerAnglesHint.z
      value: 0
      objectReference: {fileID: 0}
    - target: {fileID: 6150645652532911263, guid: c0e671d76501079469daee31567f79d8, type: 3}
      propertyPath: m_Name
      value: 1Ball
      objectReference: {fileID: 0}
    - target: {fileID: 6150645652534903391, guid: c0e671d76501079469daee31567f79d8, type: 3}
      propertyPath: m_Materials.Array.data[0]
      value: 
      objectReference: {fileID: 2100000, guid: 4f7583ddc8d9943a988dc54c249dad31, type: 2}
    - target: {fileID: 6150645652534903391, guid: c0e671d76501079469daee31567f79d8, type: 3}
      propertyPath: m_Materials.Array.data[1]
      value: 
      objectReference: {fileID: 2100000, guid: 4f7583ddc8d9943a988dc54c249dad31, type: 2}
    - target: {fileID: 6150645652534903391, guid: c0e671d76501079469daee31567f79d8, type: 3}
      propertyPath: m_Materials.Array.data[2]
      value: 
      objectReference: {fileID: 2100000, guid: 7cc4df7b042c14814acf7e96913041da, type: 2}
    - target: {fileID: 6150645652534903391, guid: c0e671d76501079469daee31567f79d8, type: 3}
      propertyPath: m_Materials.Array.data[4]
      value: 
      objectReference: {fileID: 2100000, guid: 4f7583ddc8d9943a988dc54c249dad31, type: 2}
    m_RemovedComponents: []
  m_SourcePrefab: {fileID: 100100000, guid: c0e671d76501079469daee31567f79d8, type: 3}
